{
  "Filter": [
    {
      "FilterName": "Technology",
      "FilterId": 1,
      "Active": true,
      "words": [
        {
          "Content": "Computational",
          "Id": 2
        },
        {
          "Content": "Implemntation",
          "Id": 3
        }
      ]
    },
    {
      "FilterName": "Finance",
      "FilterId": 2,
      "Active": false,
      "words": [
        {
          "Content": "Budgetary",
          "Id": 12
        },
        {
          "Content": "Due",
          "Id": 13
        }
      ]
    },
    {
      "FilterName": "",
      "FilterId": 3,
      "Active": false
    },
    {
      "FilterName": "",
      "FilterId": 4,
      "Active": false
    },
    {
      "FilterName": "",
      "FilterId": 5,
      "Active": false
    },
    {
      "FilterName": "",
      "FilterId": 6,
      "Active": false
    },
    {
      "FilterName": "",
      "FilterId": 7,
      "Active": false
    },
    {
      "FilterName": "",
      "FilterId": 8,
      "Active": false
    },
    {
      "FilterName": "",
      "FilterId": 9,
      "Active": false
    },
    {
      "FilterName": "",
      "FilterId": 10,
      "Active": false
    },
    {
      "FilterName": "",
      "FilterId": 11,
      "Active": false
    },
    {
      "FilterName": "",
      "FilterId": 12,
      "Active": false
    }
  ]
}